{
	"yota": {
		"title": "<a href='http://yota.ru/' target='_blank'>Yota 2.0</a> запущено 03.09.2014",
		"content": "<p>[27.12.14, 0:12:45] Lena Kulinich: Дима, здравствуй!</p> <p>[27.12.14, 0:12:55] Lena Kulinich: я давно не писала) теперь пора благодарить)</p> <p>[27.12.14, 0:13:16] Lena Kulinich: спасибо огромное за команду , за труд и терпение</p> <p>[27.12.14, 0:14:49] Lena Kulinich: на этот год работы завершены, мы сделали красивый сайт, не знаю , как там с увеличением продаж, но авторитет продукта в компании и на рынке повысили)</p> <p>[27.12.14, 0:15:15] Dmitriy Chekin: (sun)</p> <p>[27.12.14, 0:15:35] Lena Kulinich: вы крутые)</p> <p>[27.12.14, 0:16:15] Lena Kulinich: в следующем году нас ждет куча задач, но уже ничего не страшно, мы почти навели порядок и структурировали процесс)</p> <p>[27.12.14, 0:16:56] Dmitriy Chekin: Спасибо, что даете нам работу!</p>"
	},

	"cpeople": {
		"title": "24 СЕНТЯБРЯ. ОТМЕЧАЕМ ДЕНЬ КАПСА.",
		"content": "<p>[24.09.14, 15:05:42] Elisaveta Yanovskaya: ВЫ ТАКИЕ КЛЕВЫЕ</p> <p>[24.09.14, 15:05:48] Elisaveta Yanovskaya: ЭТО МОЙ ЛЮБИМЫЙ ЧАТИК В СКАЙПЕ</p> <p>[24.09.14, 15:06:08] Nina Smolentseva: АХАХАХХАА)) Я ТОЖЕ ЛЮБЛЮ ЭТОТ ЧАТИК)))</p> <p>[24.09.14, 15:07:33] Sergey Krasotin: СОРРИ ЧТО НЕ МОГУ ЕЖЕМИНУТНО ШУТИТЬ, ПРИХОДИТСЯ ОТВЛЕКАТЬСЯ НА РАБОТУ :(</p> <p>[24.09.14, 15:56:59] Elisaveta Yanovskaya: НУЖЕН МАКЕТ С ИКОНКАМИ</p> <p>[24.09.14, 15:57:58] Sergey Krasotin: https://www.dropbox.com/s/0v9wfhxnep3/21_sales_map.psd</p> <p>[24.09.14, 15:58:06] Sergey Krasotin: СОРРИ ЧТО ССЫЛКА НЕ КАПСОМ</p>"
	}
}
