[
	{
		"title": "Вёрстка проекта",
		"subtitle": "Краткосрочная задача с фиксированным объёмом работ",
		"link": "/order",
		"linkText": "Заказать вёрстку",
		"description": "Превращать PSD в&nbsp;HTML&nbsp;&mdash; это наше призвание. Если вам требуется из&nbsp;готового дизайна собрать крепкие и&nbsp;надёжные HTML-шаблоны для сайта или почтовой рассылки и&nbsp;при этом уложиться в&nbsp;срок, вы&nbsp;не&nbsp;ошиблись адресом. Мы&nbsp;готовы взять ваш проект незамедлительно после согласования цены и&nbsp;гарантировать соблюдение сроков разработки."
	},
	{
		"title": "Frontend аутсорсинг",
		"subtitle": "Регулярные задачи совокупным объёмом от&nbsp;200 часов в&nbsp;месяц",
		"link": "/outsource",
		"linkText": "Оставить заявку",
		"description": "CSSSR может разгрузить ваших штатных фронтенд-разработчиков или полностью взять на&nbsp;себя создание HTML/CSS-вёрстки и&nbsp;её&nbsp;поддержку, а&nbsp;также создание и&nbsp;поддержку клиентского JavaScript. Мы&nbsp;готовы взять на&nbsp;себя любой объём работы по&nbsp;фронтенду."
	}
]
